[{
        "icon": "contact",
        "name": "Principal",
        "redirectTo": "/tabs/tab1"
    },
    {
        "icon": "globe",
        "name": "Categorias",
        "redirectTo": "/tabs/tab2"
    },
    {
        "icon": "star-outline",
        "name": "Favoritos",
        "redirectTo": "/tabs/tab3"
    }
]